<?xml version="1.0" encoding="UTF-8" standalone="no"?>
<!DOCTYPE svg PUBLIC "-//W3C//DTD SVG 1.0//EN" "http://www.w3.org/TR/2001/PR-SVG-20010719/DTD/svg10.dtd">
<svg width="83cm" height="26cm" viewBox="170 24 1649 516" xmlns="http://www.w3.org/2000/svg" xmlns:xlink="http://www.w3.org/1999/xlink">
  <g>
    <rect style="fill: #f3f3ff" x="300" y="200" width="120" height="60"/>
    <rect style="fill: none; fill-opacity:0; stroke-width: 2; stroke: #000000" x="300" y="200" width="120" height="60"/>
  </g>
  <g>
    <rect style="fill: #f3f3ff" x="420" y="200" width="120" height="60"/>
    <rect style="fill: none; fill-opacity:0; stroke-width: 2; stroke: #000000" x="420" y="200" width="120" height="60"/>
  </g>
  <g>
    <rect style="fill: #f3f3ff" x="300" y="300" width="120" height="60"/>
    <rect style="fill: none; fill-opacity:0; stroke-width: 2; stroke: #000000" x="300" y="300" width="120" height="60"/>
  </g>
  <g>
    <rect style="fill: #f3f3ff" x="420" y="300" width="120" height="60"/>
    <rect style="fill: none; fill-opacity:0; stroke-width: 2; stroke: #000000" x="420" y="300" width="120" height="60"/>
  </g>
  <g>
    <rect style="fill: #f3f3ff" x="300" y="400" width="120" height="60"/>
    <rect style="fill: none; fill-opacity:0; stroke-width: 2; stroke: #000000" x="300" y="400" width="120" height="60"/>
  </g>
  <g>
    <rect style="fill: #f3f3ff" x="420" y="400" width="120" height="60"/>
    <rect style="fill: none; fill-opacity:0; stroke-width: 2; stroke: #000000" x="420" y="400" width="120" height="60"/>
  </g>
  <g>
    <rect style="fill: #ffcccc" x="580" y="200" width="140" height="60"/>
    <rect style="fill: none; fill-opacity:0; stroke-width: 2; stroke: #000000" x="580" y="200" width="140" height="60"/>
  </g>
  <g>
    <rect style="fill: #ffcccc" x="580" y="300" width="140" height="60"/>
    <rect style="fill: none; fill-opacity:0; stroke-width: 2; stroke: #000000" x="580" y="300" width="140" height="60"/>
  </g>
  <text font-size="12.7998" style="fill: #000000;text-anchor:start;font-family:sans-serif;font-style:normal;font-weight:normal" x="650" y="230">
    <tspan x="650" y="230"></tspan>
  </text>
  <text font-size="21.4486" style="fill: #000000;text-anchor:middle;font-family:sans-serif;font-style:normal;font-weight:normal" x="650" y="237.425">
    <tspan x="650" y="237.425">Movement</tspan>
  </text>
  <text font-size="21.4486" style="fill: #000000;text-anchor:middle;font-family:sans-serif;font-style:normal;font-weight:normal" x="650" y="337.425">
    <tspan x="650" y="337.425">Health</tspan>
  </text>
  <text font-size="12.7998" style="fill: #000000;text-anchor:start;font-family:sans-serif;font-style:normal;font-weight:normal" x="360" y="230">
    <tspan x="360" y="230"></tspan>
  </text>
  <text font-size="21.4486" style="fill: #000000;text-anchor:middle;font-family:sans-serif;font-style:normal;font-weight:normal" x="360" y="237.425">
    <tspan x="360" y="237.425">(1, 2, 0)</tspan>
  </text>
  <text font-size="21.4486" style="fill: #000000;text-anchor:middle;font-family:sans-serif;font-style:normal;font-weight:normal" x="360" y="337.425">
    <tspan x="360" y="337.425">(1, 3, 4)</tspan>
  </text>
  <text font-size="21.4486" style="fill: #000000;text-anchor:middle;font-family:sans-serif;font-style:normal;font-weight:normal" x="360" y="437.425">
    <tspan x="360" y="437.425">(1, 3, 4)</tspan>
  </text>
  <text font-size="21.4486" style="fill: #000000;text-anchor:middle;font-family:sans-serif;font-style:normal;font-weight:normal" x="480" y="237.425">
    <tspan x="480" y="237.425">48</tspan>
  </text>
  <text font-size="21.4486" style="fill: #000000;text-anchor:middle;font-family:sans-serif;font-style:normal;font-weight:normal" x="480" y="337.425">
    <tspan x="480" y="337.425">48</tspan>
  </text>
  <text font-size="21.4486" style="fill: #000000;text-anchor:middle;font-family:sans-serif;font-style:normal;font-weight:normal" x="480" y="437.425">
    <tspan x="480" y="437.425">36</tspan>
  </text>
  <g>
    <rect style="fill: #f3f3ff" x="790.031" y="200" width="119.938" height="60"/>
    <rect style="fill: none; fill-opacity:0; stroke-width: 2; stroke: #000000" x="790.031" y="200" width="119.938" height="60"/>
  </g>
  <g>
    <rect style="fill: #f3f3ff" x="909.969" y="200.029" width="120" height="60"/>
    <rect style="fill: none; fill-opacity:0; stroke-width: 2; stroke: #000000" x="909.969" y="200.029" width="120" height="60"/>
  </g>
  <g>
    <rect style="fill: #f3f3ff" x="790.031" y="300" width="119.938" height="60"/>
    <rect style="fill: none; fill-opacity:0; stroke-width: 2; stroke: #000000" x="790.031" y="300" width="119.938" height="60"/>
  </g>
  <g>
    <rect style="fill: #f3f3ff" x="909.969" y="300.029" width="120" height="60"/>
    <rect style="fill: none; fill-opacity:0; stroke-width: 2; stroke: #000000" x="909.969" y="300.029" width="120" height="60"/>
  </g>
  <g>
    <rect style="fill: #f3f3ff" x="790.031" y="400" width="119.938" height="60"/>
    <rect style="fill: none; fill-opacity:0; stroke-width: 2; stroke: #000000" x="790.031" y="400" width="119.938" height="60"/>
  </g>
  <g>
    <rect style="fill: #f3f3ff" x="909.906" y="400.058" width="120.062" height="60"/>
    <rect style="fill: none; fill-opacity:0; stroke-width: 2; stroke: #000000" x="909.906" y="400.058" width="120.062" height="60"/>
  </g>
  <g>
    <rect style="fill: #ffcccc" x="1070.03" y="300" width="140" height="60"/>
    <rect style="fill: none; fill-opacity:0; stroke-width: 2; stroke: #000000" x="1070.03" y="300" width="140" height="60"/>
  </g>
  <g>
    <rect style="fill: #ffcccc" x="1070.03" y="200" width="140" height="60"/>
    <rect style="fill: none; fill-opacity:0; stroke-width: 2; stroke: #000000" x="1070.03" y="200" width="140" height="60"/>
  </g>
  <text font-size="12.7998" style="fill: #000000;text-anchor:start;font-family:sans-serif;font-style:normal;font-weight:normal" x="1140.03" y="330">
    <tspan x="1140.03" y="330"></tspan>
  </text>
  <text font-size="22.013" style="fill: #000000;text-anchor:middle;font-family:sans-serif;font-style:normal;font-weight:normal" x="1140.03" y="337.6">
    <tspan x="1140.03" y="337.6">Movement</tspan>
  </text>
  <text font-size="22.013" style="fill: #000000;text-anchor:middle;font-family:sans-serif;font-style:normal;font-weight:normal" x="1140.03" y="237.6">
    <tspan x="1140.03" y="237.6">Health</tspan>
  </text>
  <text font-size="12.7998" style="fill: #000000;text-anchor:start;font-family:sans-serif;font-style:normal;font-weight:normal" x="850" y="230">
    <tspan x="850" y="230"></tspan>
  </text>
  <text font-size="21.4486" style="fill: #000000;text-anchor:middle;font-family:sans-serif;font-style:normal;font-weight:normal" x="850" y="237.425">
    <tspan x="850" y="237.425">(1, 2, 0)</tspan>
  </text>
  <text font-size="21.4486" style="fill: #000000;text-anchor:middle;font-family:sans-serif;font-style:normal;font-weight:normal" x="850" y="337.425">
    <tspan x="850" y="337.425">(1, 2, 0)</tspan>
  </text>
  <text font-size="21.4486" style="fill: #000000;text-anchor:middle;font-family:sans-serif;font-style:normal;font-weight:normal" x="850" y="437.425">
    <tspan x="850" y="437.425">(1, 2.75, 3)</tspan>
  </text>
  <text font-size="21.4486" style="fill: #000000;text-anchor:middle;font-family:sans-serif;font-style:normal;font-weight:normal" x="969.969" y="237.454">
    <tspan x="969.969" y="237.454">48</tspan>
  </text>
  <text font-size="21.4486" style="fill: #000000;text-anchor:middle;font-family:sans-serif;font-style:normal;font-weight:normal" x="969.969" y="337.454">
    <tspan x="969.969" y="337.454">36</tspan>
  </text>
  <text font-size="21.4486" style="fill: #000000;text-anchor:middle;font-family:sans-serif;font-style:normal;font-weight:normal" x="969.938" y="437.483">
    <tspan x="969.938" y="437.483">36</tspan>
  </text>
  <g>
    <polygon style="fill: #ffffff" points="200,200 200,464 208,464 198,480 188,464 196,464 196,200 "/>
    <polygon style="fill: none; fill-opacity:0; stroke-width: 3; stroke: #000000" points="200,200 200,464 208,464 198,480 188,464 196,464 196,200 "/>
  </g>
  <text font-size="22.5774" style="fill: #000000;text-anchor:start;font-family:sans-serif;font-style:normal;font-weight:normal" x="170" y="190">
    <tspan x="170" y="190">Time</tspan>
  </text>
  <text font-size="22.5774" style="fill: #000000;text-anchor:start;font-family:sans-serif;font-style:normal;font-weight:normal" x="320" y="190">
    <tspan x="320" y="190">Position</tspan>
  </text>
  <text font-size="22.5774" style="fill: #000000;text-anchor:start;font-family:sans-serif;font-style:normal;font-weight:normal" x="440" y="190">
    <tspan x="440" y="190">Health</tspan>
  </text>
  <text font-size="22.5774" style="fill: #000000;text-anchor:start;font-family:sans-serif;font-style:normal;font-weight:normal" x="809.969" y="190.029">
    <tspan x="809.969" y="190.029">Position</tspan>
  </text>
  <text font-size="22.5774" style="fill: #000000;text-anchor:start;font-family:sans-serif;font-style:normal;font-weight:normal" x="929.969" y="190.029">
    <tspan x="929.969" y="190.029">Health</tspan>
  </text>
  <text font-size="22.5774" style="fill: #000000;text-anchor:start;font-family:sans-serif;font-style:normal;font-weight:normal" x="350" y="150">
    <tspan x="350" y="150">Components</tspan>
  </text>
  <text font-size="22.5774" style="fill: #000000;text-anchor:start;font-family:sans-serif;font-style:normal;font-weight:normal" x="839.969" y="150.029">
    <tspan x="839.969" y="150.029">Components</tspan>
  </text>
  <text font-size="22.5774" style="fill: #000000;text-anchor:start;font-family:sans-serif;font-style:normal;font-weight:normal" x="560.031" y="150">
    <tspan x="560.031" y="150">Running process</tspan>
  </text>
  <text font-size="22.5774" style="fill: #000000;text-anchor:start;font-family:sans-serif;font-style:normal;font-weight:normal" x="1050.06" y="150">
    <tspan x="1050.06" y="150">Running process</tspan>
  </text>
  <g>
    <rect style="fill: #ffcccc" x="1640" y="200" width="140" height="60"/>
    <rect style="fill: none; fill-opacity:0; stroke-width: 2; stroke: #000000" x="1640" y="200" width="140" height="60"/>
  </g>
  <g>
    <rect style="fill: #ffcccc" x="1640" y="300" width="140" height="60"/>
    <rect style="fill: none; fill-opacity:0; stroke-width: 2; stroke: #000000" x="1640" y="300" width="140" height="60"/>
  </g>
  <text font-size="12.7998" style="fill: #000000;text-anchor:start;font-family:sans-serif;font-style:normal;font-weight:normal" x="1710" y="230">
    <tspan x="1710" y="230"></tspan>
  </text>
  <text font-size="21.4486" style="fill: #000000;text-anchor:middle;font-family:sans-serif;font-style:normal;font-weight:normal" x="1710" y="237.425">
    <tspan x="1710" y="237.425">Movement</tspan>
  </text>
  <text font-size="21.4486" style="fill: #000000;text-anchor:middle;font-family:sans-serif;font-style:normal;font-weight:normal" x="1710" y="337.425">
    <tspan x="1710" y="337.425">Health</tspan>
  </text>
  <text font-size="22.5774" style="fill: #000000;text-anchor:start;font-family:sans-serif;font-style:normal;font-weight:normal" x="1620.03" y="150">
    <tspan x="1620.03" y="150">Running process</tspan>
  </text>
  <g>
    <rect style="fill: #f3f3ff" x="1360" y="200" width="120" height="60"/>
    <rect style="fill: none; fill-opacity:0; stroke-width: 2; stroke: #000000" x="1360" y="200" width="120" height="60"/>
  </g>
  <g>
    <rect style="fill: #f3f3ff" x="1480" y="200" width="120" height="60"/>
    <rect style="fill: none; fill-opacity:0; stroke-width: 2; stroke: #000000" x="1480" y="200" width="120" height="60"/>
  </g>
  <g>
    <rect style="fill: #f3f3ff" x="1360" y="400" width="120" height="60"/>
    <rect style="fill: none; fill-opacity:0; stroke-width: 2; stroke: #000000" x="1360" y="400" width="120" height="60"/>
  </g>
  <g>
    <rect style="fill: #f3f3ff" x="1480" y="400" width="120" height="60"/>
    <rect style="fill: none; fill-opacity:0; stroke-width: 2; stroke: #000000" x="1480" y="400" width="120" height="60"/>
  </g>
  <text font-size="12.7998" style="fill: #000000;text-anchor:start;font-family:sans-serif;font-style:normal;font-weight:normal" x="1420" y="230">
    <tspan x="1420" y="230"></tspan>
  </text>
  <text font-size="21.4486" style="fill: #000000;text-anchor:middle;font-family:sans-serif;font-style:normal;font-weight:normal" x="1420" y="237.425">
    <tspan x="1420" y="237.425">(1, 2, 0)</tspan>
  </text>
  <text font-size="21.4486" style="fill: #000000;text-anchor:middle;font-family:sans-serif;font-style:normal;font-weight:normal" x="1420" y="437.425">
    <tspan x="1420" y="437.425">(1, 3, 4)</tspan>
  </text>
  <text font-size="21.4486" style="fill: #000000;text-anchor:middle;font-family:sans-serif;font-style:normal;font-weight:normal" x="1540" y="237.425">
    <tspan x="1540" y="237.425">48</tspan>
  </text>
  <text font-size="21.4486" style="fill: #000000;text-anchor:middle;font-family:sans-serif;font-style:normal;font-weight:normal" x="1540" y="437.425">
    <tspan x="1540" y="437.425">36</tspan>
  </text>
  <text font-size="22.5774" style="fill: #000000;text-anchor:start;font-family:sans-serif;font-style:normal;font-weight:normal" x="1380" y="190">
    <tspan x="1380" y="190">Position</tspan>
  </text>
  <text font-size="22.5774" style="fill: #000000;text-anchor:start;font-family:sans-serif;font-style:normal;font-weight:normal" x="1500" y="190">
    <tspan x="1500" y="190">Health</tspan>
  </text>
  <text font-size="22.5774" style="fill: #000000;text-anchor:start;font-family:sans-serif;font-style:normal;font-weight:normal" x="1400" y="150">
    <tspan x="1400" y="150">Components</tspan>
  </text>
  <text font-size="22.5774" style="fill: #000000;text-anchor:start;font-family:sans-serif;font-style:normal;font-weight:normal" x="1280" y="240">
    <tspan x="1280" y="240">Past</tspan>
  </text>
  <text font-size="22.5774" style="fill: #000000;text-anchor:start;font-family:sans-serif;font-style:normal;font-weight:normal" x="1280" y="440">
    <tspan x="1280" y="440">Future</tspan>
  </text>
  <g>
    <line style="fill: none; fill-opacity:0; stroke-width: 2; stroke: #000000" x1="540" y1="230" x2="569" y2="230"/>
    <polygon style="fill: #000000" points="569,235 579,230 569,225 "/>
    <polygon style="fill: none; fill-opacity:0; stroke-width: 2; stroke: #000000" points="569,235 579,230 569,225 "/>
  </g>
  <g>
    <line style="fill: none; fill-opacity:0; stroke-width: 2; stroke: #000000" x1="540" y1="330" x2="568.048" y2="330"/>
    <polygon style="fill: #000000" points="568.048,335 578.048,330 568.048,325 "/>
    <polygon style="fill: none; fill-opacity:0; stroke-width: 2; stroke: #000000" points="568.048,335 578.048,330 568.048,325 "/>
  </g>
  <g>
    <line style="fill: none; fill-opacity:0; stroke-width: 2; stroke: #000000" x1="1029.97" y1="230.029" x2="1059.03" y2="230.008"/>
    <polygon style="fill: #000000" points="1059.03,235.008 1069.03,230.001 1059.03,225.008 "/>
    <polygon style="fill: none; fill-opacity:0; stroke-width: 2; stroke: #000000" points="1059.03,235.008 1069.03,230.001 1059.03,225.008 "/>
  </g>
  <g>
    <line style="fill: none; fill-opacity:0; stroke-width: 2; stroke: #000000" x1="1029.97" y1="330.029" x2="1059.03" y2="330.008"/>
    <polygon style="fill: #000000" points="1059.03,335.008 1069.03,330.001 1059.03,325.008 "/>
    <polygon style="fill: none; fill-opacity:0; stroke-width: 2; stroke: #000000" points="1059.03,335.008 1069.03,330.001 1059.03,325.008 "/>
  </g>
  <g>
    <line style="fill: none; fill-opacity:0; stroke-width: 2; stroke: #000000" x1="1600" y1="250" x2="1635.08" y2="320.161"/>
    <polygon style="fill: #000000" points="1630.61,322.397 1639.55,329.106 1639.55,317.925 "/>
    <polygon style="fill: none; fill-opacity:0; stroke-width: 2; stroke: #000000" points="1630.61,322.397 1639.55,329.106 1639.55,317.925 "/>
  </g>
  <g>
    <line style="fill: none; fill-opacity:0; stroke-width: 2; stroke: #000000" x1="1600" y1="230" x2="1629" y2="230"/>
    <polygon style="fill: #000000" points="1629,235 1639,230 1629,225 "/>
    <polygon style="fill: none; fill-opacity:0; stroke-width: 2; stroke: #000000" points="1629,235 1639,230 1629,225 "/>
  </g>
  <g>
    <line style="fill: none; fill-opacity:0; stroke-width: 2; stroke: #0000a3" x1="580" y1="260" x2="370.823" y2="298.032"/>
    <polygon style="fill: #0000a3" points="369.928,293.113 360.984,299.821 371.717,302.952 "/>
    <polygon style="fill: none; fill-opacity:0; stroke-width: 2; stroke: #0000a3" points="369.928,293.113 360.984,299.821 371.717,302.952 "/>
  </g>
  <g>
    <line style="fill: none; fill-opacity:0; stroke-width: 2; stroke: #0000a3" x1="1070.03" y1="360" x2="860.823" y2="398.033"/>
    <polygon style="fill: #0000a3" points="859.928,393.113 850.984,399.821 861.717,402.952 "/>
    <polygon style="fill: none; fill-opacity:0; stroke-width: 2; stroke: #0000a3" points="859.928,393.113 850.984,399.821 861.717,402.952 "/>
  </g>
  <g>
    <line style="fill: none; fill-opacity:0; stroke-width: 2; stroke: #0000a3" x1="580" y1="360" x2="490.213" y2="395.915"/>
    <polygon style="fill: #0000a3" points="488.356,391.272 480.928,399.629 492.07,400.557 "/>
    <polygon style="fill: none; fill-opacity:0; stroke-width: 2; stroke: #0000a3" points="488.356,391.272 480.928,399.629 492.07,400.557 "/>
  </g>
  <g>
    <line style="fill: none; fill-opacity:0; stroke-width: 2; stroke: #0000a3" x1="1070.03" y1="260" x2="980.182" y2="295.943"/>
    <polygon style="fill: #0000a3" points="978.325,291.301 970.897,299.658 982.039,300.586 "/>
    <polygon style="fill: none; fill-opacity:0; stroke-width: 2; stroke: #0000a3" points="978.325,291.301 970.897,299.658 982.039,300.586 "/>
  </g>
  <g>
    <line style="fill: none; fill-opacity:0; stroke-width: 2; stroke: #0000a3" x1="1640" y1="360" x2="1550.21" y2="395.915"/>
    <polygon style="fill: #0000a3" points="1548.36,391.272 1540.93,399.629 1552.07,400.557 "/>
    <polygon style="fill: none; fill-opacity:0; stroke-width: 2; stroke: #0000a3" points="1548.36,391.272 1540.93,399.629 1552.07,400.557 "/>
  </g>
  <g>
    <line style="fill: none; fill-opacity:0; stroke-width: 2; stroke: #0000a3" x1="1640" y1="260" x2="1429.28" y2="394.094"/>
    <polygon style="fill: #0000a3" points="1426.6,389.876 1420.84,399.463 1431.96,398.313 "/>
    <polygon style="fill: none; fill-opacity:0; stroke-width: 2; stroke: #0000a3" points="1426.6,389.876 1420.84,399.463 1431.96,398.313 "/>
  </g>
  <text font-size="27.0929" style="fill: #000000;text-anchor:middle;font-family:sans-serif;font-style:normal;font-weight:normal" x="460" y="49.375">
    <tspan x="460" y="49.375">Directly modified state</tspan>
  </text>
  <text font-size="27.0929" style="fill: #000000;text-anchor:middle;font-family:sans-serif;font-style:normal;font-weight:normal" x="1020" y="52.4417">
    <tspan x="1020" y="52.4417">Directly modified state</tspan>
    <tspan x="1020" y="86.3083">(different processing order)</tspan>
  </text>
  <text font-size="27.0929" style="fill: #000000;text-anchor:middle;font-family:sans-serif;font-style:normal;font-weight:normal" x="1610" y="49.375">
    <tspan x="1610" y="49.375">Separate past and future state</tspan>
  </text>
  <g>
    <line style="fill: none; fill-opacity:0; stroke-width: 2; stroke: #000000" x1="1620" y1="500" x2="1709" y2="500"/>
    <polygon style="fill: #000000" points="1709,505 1719,500 1709,495 "/>
    <polygon style="fill: none; fill-opacity:0; stroke-width: 2; stroke: #000000" points="1709,505 1719,500 1709,495 "/>
  </g>
  <g>
    <line style="fill: none; fill-opacity:0; stroke-width: 2; stroke: #0000a3" x1="1720" y1="530" x2="1631" y2="530"/>
    <polygon style="fill: #0000a3" points="1631,525 1621,530 1631,535 "/>
    <polygon style="fill: none; fill-opacity:0; stroke-width: 2; stroke: #0000a3" points="1631,525 1621,530 1631,535 "/>
  </g>
  <text font-size="14.6753" style="fill: #000000;text-anchor:start;font-family:sans-serif;font-style:normal;font-weight:normal" x="1740" y="506">
    <tspan x="1740" y="506">Read</tspan>
  </text>
  <text font-size="14.6753" style="fill: #000000;text-anchor:start;font-family:sans-serif;font-style:normal;font-weight:normal" x="1740" y="536">
    <tspan x="1740" y="536">Write</tspan>
  </text>
</svg>
